STA106-Project2
…
These two have very high BMIs, so it is unsurprising that they have
larger distance away from a multitude of datasets from healthier
patients.

Finally, we will now check if the variances are equal across all
samples or not. For this, we will use the Brown-Forsythe Test to check
the difference between the variances in each group.

grouped_hd_var <- grouped_hd %>%
  group_by(Sample) %>%
  summarize(var=var(BMI))

grouped_hd_var

## # A tibble: 32 x 2
##    Sample   var
##    <fct>  <dbl>
##  1 1       41.6
##  2 2       49.9
##  3 3       32.0
##  4 4       60.5
##  5 5       42.0
##  6 6       31.8
##  7 7       71.9
##  8 8       40.9
##  9 9       50.0
## 10 10      25.1
## # ... with 22 more rows
…
